%YAML 1.1
%TAG !u! tag:unity3d.com,2011:
--- !u!29 &1
SceneSettings:
  m_ObjectHideFlags: 0
  m_PVSData: 
  m_PVSObjectsArray: []
  m_PVSPortalsArray: []
  m_OcclusionBakeSettings:
    smallestOccluder: 5
    smallestHole: 0.25
    backfaceThreshold: 100
--- !u!104 &2
RenderSettings:
  m_ObjectHideFlags: 0
  serializedVersion: 6
  m_Fog: 0
  m_FogColor: {r: 0.5, g: 0.5, b: 0.5, a: 1}
  m_FogMode: 3
  m_FogDensity: 0.01
  m_LinearFogStart: 0
  m_LinearFogEnd: 300
  m_AmbientSkyColor: {r: 0.2, g: 0.2, b: 0.2, a: 1}
  m_AmbientEquatorColor: {r: 0.2, g: 0.2, b: 0.2, a: 1}
  m_AmbientGroundColor: {r: 0.2, g: 0.2, b: 0.2, a: 1}
  m_AmbientIntensity: 1
  m_AmbientMode: 3
  m_SkyboxMaterial: {fileID: 2100000, guid: caf4f12b72f38f846b2f970c5a911b4f, type: 2}
  m_HaloStrength: 0.5
  m_FlareStrength: 1
  m_FlareFadeSpeed: 3
  m_HaloTexture: {fileID: 0}
  m_SpotCookie: {fileID: 10001, guid: 0000000000000000e000000000000000, type: 0}
  m_DefaultReflectionMode: 0
  m_DefaultReflectionResolution: 128
  m_ReflectionBounces: 1
  m_ReflectionIntensity: 1
  m_CustomReflection: {fileID: 0}
  m_Sun: {fileID: 0}
--- !u!157 &4
LightmapSettings:
  m_ObjectHideFlags: 0
  serializedVersion: 6
  m_GIWorkflowMode: 1
  m_LightmapsMode: 1
  m_GISettings:
    serializedVersion: 2
    m_BounceScale: 1
    m_IndirectOutputScale: 1
    m_AlbedoBoost: 1
    m_TemporalCoherenceThreshold: 1
    m_EnvironmentLightingMode: 0
    m_EnableBakedLightmaps: 1
    m_EnableRealtimeLightmaps: 0
  m_LightmapEditorSettings:
    serializedVersion: 3
    m_Resolution: 1
    m_BakeResolution: 50
    m_TextureWidth: 1024
    m_TextureHeight: 1024
    m_AOMaxDistance: 1
    m_Padding: 2
    m_CompAOExponent: 0
    m_LightmapParameters: {fileID: 0}
    m_TextureCompression: 0
    m_FinalGather: 0
    m_FinalGatherRayCount: 1024
    m_ReflectionCompression: 2
  m_LightingDataAsset: {fileID: 0}
  m_RuntimeCPUUsage: 25
--- !u!196 &5
NavMeshSettings:
  serializedVersion: 2
  m_ObjectHideFlags: 0
  m_BuildSettings:
    serializedVersion: 2
    agentRadius: 0.5
    agentHeight: 2
    agentSlope: 45
    agentClimb: 0.4
    ledgeDropHeight: 0
    maxJumpAcrossDistance: 0
    accuratePlacement: 0
    minRegionArea: 2
    cellSize: 0.16666666
    manualCellSize: 0
  m_NavMeshData: {fileID: 0}
--- !u!1001 &670619290
Prefab:
  m_ObjectHideFlags: 0
  serializedVersion: 2
  m_Modification:
    m_TransformParent: {fileID: 0}
    m_Modifications:
    - target: {fileID: 400000, guid: 4698c91b91d5fcf4bac2569088e9ec39, type: 2}
      propertyPath: m_LocalPosition.x
      value: 0
      objectReference: {fileID: 0}
    - target: {fileID: 400000, guid: 4698c91b91d5fcf4bac2569088e9ec39, type: 2}
      propertyPath: m_LocalPosition.y
      value: 0
      objectReference: {fileID: 0}
    - target: {fileID: 400000, guid: 4698c91b91d5fcf4bac2569088e9ec39, type: 2}
      propertyPath: m_LocalPosition.z
      value: 0
      objectReference: {fileID: 0}
    - target: {fileID: 400000, guid: 4698c91b91d5fcf4bac2569088e9ec39, type: 2}
      propertyPath: m_LocalRotation.x
      value: -.298541129
      objectReference: {fileID: 0}
    - target: {fileID: 400000, guid: 4698c91b91d5fcf4bac2569088e9ec39, type: 2}
      propertyPath: m_LocalRotation.y
      value: 0
      objectReference: {fileID: 0}
    - target: {fileID: 400000, guid: 4698c91b91d5fcf4bac2569088e9ec39, type: 2}
      propertyPath: m_LocalRotation.z
      value: 0
      objectReference: {fileID: 0}
    - target: {fileID: 400000, guid: 4698c91b91d5fcf4bac2569088e9ec39, type: 2}
      propertyPath: m_LocalRotation.w
      value: .954396784
      objectReference: {fileID: 0}
    m_RemovedComponents: []
  m_ParentPrefab: {fileID: 100100000, guid: 4698c91b91d5fcf4bac2569088e9ec39, type: 2}
  m_RootGameObject: {fileID: 1175893033}
  m_IsPrefabParent: 0
--- !u!1 &1028394193
GameObject:
  m_ObjectHideFlags: 0
  m_PrefabParentObject: {fileID: 100000, guid: 6a17e58f963e36a448fb1125497b928c, type: 2}
  m_PrefabInternal: {fileID: 2043172016}
  serializedVersion: 4
  m_Component:
  - 4: {fileID: 1028394195}
  - 114: {fileID: 1028394194}
  m_Layer: 0
  m_Name: PF_LevelLoader
  m_TagString: Untagged
  m_Icon: {fileID: 0}
  m_NavMeshLayer: 0
  m_StaticEditorFlags: 0
  m_IsActive: 1
--- !u!114 &1028394194
MonoBehaviour:
  m_ObjectHideFlags: 0
  m_PrefabParentObject: {fileID: 11400000, guid: 6a17e58f963e36a448fb1125497b928c,
    type: 2}
  m_PrefabInternal: {fileID: 2043172016}
  m_GameObject: {fileID: 1028394193}
  m_Enabled: 1
  m_EditorHideFlags: 0
  m_Script: {fileID: 11500000, guid: 8834a24b4fbf15d488dd848268bbbace, type: 3}
  m_Name: 
  m_EditorClassIdentifier: 
--- !u!4 &1028394195
Transform:
  m_ObjectHideFlags: 0
  m_PrefabParentObject: {fileID: 400000, guid: 6a17e58f963e36a448fb1125497b928c, type: 2}
  m_PrefabInternal: {fileID: 2043172016}
  m_GameObject: {fileID: 1028394193}
  m_LocalRotation: {x: 0, y: 0, z: 0, w: 1}
  m_LocalPosition: {x: 0, y: 0, z: 0}
  m_LocalScale: {x: 1, y: 1, z: 1}
  m_LocalEulerAnglesHint: {x: 0, y: 0, z: 0}
  m_Children: []
  m_Father: {fileID: 0}
  m_RootOrder: 0
--- !u!1 &1175893033
GameObject:
  m_ObjectHideFlags: 0
  m_PrefabParentObject: {fileID: 100000, guid: 4698c91b91d5fcf4bac2569088e9ec39, type: 2}
  m_PrefabInternal: {fileID: 670619290}
  serializedVersion: 4
  m_Component:
  - 4: {fileID: 1175893039}
  - 20: {fileID: 1175893038}
  - 92: {fileID: 1175893037}
  - 124: {fileID: 1175893036}
  - 81: {fileID: 1175893035}
  - 114: {fileID: 1175893034}
  m_Layer: 0
  m_Name: PF_MainCamera
  m_TagString: MainCamera
  m_Icon: {fileID: 0}
  m_NavMeshLayer: 0
  m_StaticEditorFlags: 0
  m_IsActive: 1
--- !u!114 &1175893034
MonoBehaviour:
  m_ObjectHideFlags: 0
  m_PrefabParentObject: {fileID: 11400000, guid: 4698c91b91d5fcf4bac2569088e9ec39,
    type: 2}
  m_PrefabInternal: {fileID: 670619290}
  m_GameObject: {fileID: 1175893033}
  m_Enabled: 1
  m_EditorHideFlags: 0
  m_Script: {fileID: 11500000, guid: 9fc41be420bb2ca458fe386c28cef666, type: 3}
  m_Name: 
  m_EditorClassIdentifier: 
  verticalSensitivity: 10
  horizontalSensitivity: 10
  mouseCenteredAndHidden: 0
  allowEscape: 0
--- !u!81 &1175893035
AudioListener:
  m_ObjectHideFlags: 0
  m_PrefabParentObject: {fileID: 8100000, guid: 4698c91b91d5fcf4bac2569088e9ec39,
    type: 2}
  m_PrefabInternal: {fileID: 670619290}
  m_GameObject: {fileID: 1175893033}
  m_Enabled: 1
--- !u!124 &1175893036
Behaviour:
  m_ObjectHideFlags: 0
  m_PrefabParentObject: {fileID: 12400000, guid: 4698c91b91d5fcf4bac2569088e9ec39,
    type: 2}
  m_PrefabInternal: {fileID: 670619290}
  m_GameObject: {fileID: 1175893033}
  m_Enabled: 1
--- !u!92 &1175893037
Behaviour:
  m_ObjectHideFlags: 0
  m_PrefabParentObject: {fileID: 9200000, guid: 4698c91b91d5fcf4bac2569088e9ec39,
    type: 2}
  m_PrefabInternal: {fileID: 670619290}
  m_GameObject: {fileID: 1175893033}
  m_Enabled: 1
--- !u!20 &1175893038
Camera:
  m_ObjectHideFlags: 0
  m_PrefabParentObject: {fileID: 2000000, guid: 4698c91b91d5fcf4bac2569088e9ec39,
    type: 2}
  m_PrefabInternal: {fileID: 670619290}
  m_GameObject: {fileID: 1175893033}
  m_Enabled: 1
  serializedVersion: 2
  m_ClearFlags: 1
  m_BackGroundColor: {r: 0.19215687, g: 0.3019608, b: 0.4745098, a: 0.019607844}
  m_NormalizedViewPortRect:
    serializedVersion: 2
    x: 0
    y: 0
    width: 1
    height: 1
  near clip plane: 0.3
  far clip plane: 1000
  field of view: 60
  orthographic: 0
  orthographic size: 100
  m_Depth: -1
  m_CullingMask:
    serializedVersion: 2
    m_Bits: 4294967295
  m_RenderingPath: -1
  m_TargetTexture: {fileID: 0}
  m_TargetDisplay: 0
  m_TargetEye: 3
  m_HDR: 0
  m_OcclusionCulling: 1
  m_StereoConvergence: 10
  m_StereoSeparation: 0.022
  m_StereoMirrorMode: 0
--- !u!4 &1175893039
Transform:
  m_ObjectHideFlags: 0
  m_PrefabParentObject: {fileID: 400000, guid: 4698c91b91d5fcf4bac2569088e9ec39, type: 2}
  m_PrefabInternal: {fileID: 670619290}
  m_GameObject: {fileID: 1175893033}
  m_LocalRotation: {x: -0.29854113, y: 0, z: 0, w: 0.9543968}
  m_LocalPosition: {x: 0, y: 0, z: 0}
  m_LocalScale: {x: 1, y: 1, z: 1}
  m_LocalEulerAnglesHint: {x: 0, y: 0, z: 0}
  m_Children: []
  m_Father: {fileID: 0}
  m_RootOrder: 1
--- !u!1001 &2043172016
Prefab:
  m_ObjectHideFlags: 0
  serializedVersion: 2
  m_Modification:
    m_TransformParent: {fileID: 0}
    m_Modifications:
    - target: {fileID: 400000, guid: 6a17e58f963e36a448fb1125497b928c, type: 2}
      propertyPath: m_LocalPosition.x
      value: 0
      objectReference: {fileID: 0}
    - target: {fileID: 400000, guid: 6a17e58f963e36a448fb1125497b928c, type: 2}
      propertyPath: m_LocalPosition.y
      value: 0
      objectReference: {fileID: 0}
    - target: {fileID: 400000, guid: 6a17e58f963e36a448fb1125497b928c, type: 2}
      propertyPath: m_LocalPosition.z
      value: 0
      objectReference: {fileID: 0}
    - target: {fileID: 400000, guid: 6a17e58f963e36a448fb1125497b928c, type: 2}
      propertyPath: m_LocalRotation.x
      value: 0
      objectReference: {fileID: 0}
    - target: {fileID: 400000, guid: 6a17e58f963e36a448fb1125497b928c, type: 2}
      propertyPath: m_LocalRotation.y
      value: 0
      objectReference: {fileID: 0}
    - target: {fileID: 400000, guid: 6a17e58f963e36a448fb1125497b928c, type: 2}
      propertyPath: m_LocalRotation.z
      value: 0
      objectReference: {fileID: 0}
    - target: {fileID: 400000, guid: 6a17e58f963e36a448fb1125497b928c, type: 2}
      propertyPath: m_LocalRotation.w
      value: 1
      objectReference: {fileID: 0}
    m_RemovedComponents: []
  m_ParentPrefab: {fileID: 100100000, guid: 6a17e58f963e36a448fb1125497b928c, type: 2}
  m_RootGameObject: {fileID: 1028394193}
  m_IsPrefabParent: 0
